module gitlab.com/octo42/clang-format-gae

go 1.21.0

require (
	contrib.go.opencensus.io/exporter/stackdriver v0.13.14
	github.com/octo/retry v0.0.0-20190916071054-8f54f48e619b
	go.opencensus.io v0.24.0
)

require (
	cloud.google.com/go/compute v1.5.0 // indirect
	cloud.google.com/go/monitoring v1.1.0 // indirect
	cloud.google.com/go/trace v1.0.0 // indirect
	github.com/aws/aws-sdk-go v1.43.31 // indirect
	github.com/census-instrumentation/opencensus-proto v0.3.0 // indirect
	github.com/golang/groupcache v0.0.0-20210331224755-41bb18bfe9da // indirect
	github.com/golang/protobuf v1.5.2 // indirect
	github.com/google/go-cmp v0.5.7 // indirect
	github.com/googleapis/gax-go/v2 v2.2.0 // indirect
	github.com/jmespath/go-jmespath v0.4.0 // indirect
	github.com/prometheus/prometheus v0.35.0 // indirect
	golang.org/x/net v0.0.0-20220325170049-de3da57026de // indirect
	golang.org/x/oauth2 v0.0.0-20220309155454-6242fa91716a // indirect
	golang.org/x/sync v0.0.0-20210220032951-036812b2e83c // indirect
	golang.org/x/sys v0.0.0-20220328115105-d36c6a25d886 // indirect
	golang.org/x/text v0.3.7 // indirect
	google.golang.org/api v0.74.0 // indirect
	google.golang.org/appengine v1.6.7 // indirect
	google.golang.org/genproto v0.0.0-20220324131243-acbaeb5b85eb // indirect
	google.golang.org/grpc v1.45.0 // indirect
	google.golang.org/protobuf v1.28.0 // indirect
)
